<?xml version="1.0" encoding="UTF-8" standalone="no"?>
<!-- Created with Inkscape (http://www.inkscape.org/) -->

<svg
   id="svg6929"
   sodipodi:docname="routerE.svg"
   viewBox="0 0 114.28572 68.57143"
   version="1.1"
   inkscape:version="1.2.2 (b0a8486541, 2022-12-01)"
   width="80"
   height="48"
   inkscape:export-filename="routerE.png"
   inkscape:export-xdpi="96"
   inkscape:export-ydpi="96"
   xml:space="preserve"
   xmlns:inkscape="http://www.inkscape.org/namespaces/inkscape"
   xmlns:sodipodi="http://sodipodi.sourceforge.net/DTD/sodipodi-0.dtd"
   xmlns="http://www.w3.org/2000/svg"
   xmlns:svg="http://www.w3.org/2000/svg"
   xmlns:rdf="http://www.w3.org/1999/02/22-rdf-syntax-ns#"
   xmlns:cc="http://creativecommons.org/ns#"
   xmlns:dc="http://purl.org/dc/elements/1.1/"><defs
     id="defs216"><filter
       style="color-interpolation-filters:sRGB;"
       inkscape:label="Drop Shadow"
       id="filter4797"
       x="-0.055843101"
       y="-0.11858632"
       width="1.1113006"
       height="1.2970359"><feFlood
         flood-opacity="0.498039"
         flood-color="rgb(94,94,94)"
         result="flood"
         id="feFlood4787" /><feComposite
         in="flood"
         in2="SourceGraphic"
         operator="in"
         result="composite1"
         id="feComposite4789" /><feGaussianBlur
         in="composite1"
         stdDeviation="2"
         result="blur"
         id="feGaussianBlur4791" /><feOffset
         dx="-0.0413236"
         dy="3"
         result="offset"
         id="feOffset4793" /><feComposite
         in="SourceGraphic"
         in2="offset"
         operator="over"
         result="composite2"
         id="feComposite4795" /></filter></defs><sodipodi:namedview
     id="base"
     bordercolor="#666666"
     inkscape:pageshadow="2"
     inkscape:window-y="0"
     fit-margin-left="0"
     pagecolor="#ffffff"
     fit-margin-top="0"
     inkscape:window-maximized="1"
     inkscape:zoom="7.9195959"
     inkscape:window-x="0"
     inkscape:window-height="1172"
     showgrid="false"
     borderopacity="1.0"
     inkscape:current-layer="g1126"
     inkscape:cx="35.671012"
     inkscape:cy="17.614535"
     fit-margin-right="0"
     fit-margin-bottom="0"
     inkscape:window-width="956"
     inkscape:pageopacity="0.0"
     inkscape:document-units="px"
     inkscape:showpageshadow="2"
     inkscape:pagecheckerboard="0"
     inkscape:deskcolor="#d1d1d1"
     shape-rendering="auto" /><g
     id="layer1"
     inkscape:label="Calque 1"
     inkscape:groupmode="layer"
     transform="translate(-379.2995,-377.09824)"><g
       id="g1126"
       transform="translate(-0.33653846,-3.6696986)"><path
         id="path216"
         d="m 383.19859,405.9026 13.39507,-15.03426 h 80.37047 l 13.39507,15.03426 v 35.07993 H 383.19859 Z"
         style="fill:#ececec;fill-rule:evenodd;stroke:#000000;stroke-width:2.28571437;stroke-miterlimit:10;filter:url(#filter4797);stroke-dasharray:none"
         inkscape:connector-curvature="0" /><path
         id="path218"
         d="m 388.7754,410.91402 h 95.99806 c 0.6148,0 1.11625,0.56278 1.11625,1.25285 v 22.55139 c 0,0.69483 -0.50145,1.25285 -1.11625,1.25285 H 388.7754 c -0.61481,0 -1.11625,-0.55802 -1.11625,-1.25285 v -22.55139 c 0,-0.69007 0.50144,-1.25285 1.11625,-1.25285"
         style="fill:#bdbdbd;fill-rule:evenodd;stroke:#9c9c9c;stroke-width:1.18258;stroke-linejoin:round;stroke-miterlimit:10"
         inkscape:connector-curvature="0" /><path
         id="path244"
         d="m 391.01238,405.9026 8.93005,-10.02284 h 73.67292 l 8.93006,10.02284 z"
         style="fill:#bdbdbd;fill-rule:evenodd;stroke:#9c9c9c;stroke-width:1.18258;stroke-miterlimit:10"
         inkscape:connector-curvature="0" /><g
         id="g15019"
         transform="translate(-4.8532527,-16.378765)"><g
           id="g11789-5"
           transform="matrix(0.5,0,0,0.5,193.1635,211.06071)"><g
             id="g11735-5"
             transform="translate(0.02982334)"><path
               id="path224-6-4"
               d="m 408.42711,455.37047 h 7.8174 c 0.68847,0 1.25,0.5615 1.25,1.25 v 5 c 0,0.69325 -0.56153,1.25 -1.25,1.25 h -7.8174 c -0.68848,0 -1.25,-0.55675 -1.25,-1.25 v -5 c 0,-0.6885 0.56152,-1.25 1.25,-1.25"
               style="fill:#515151;fill-rule:evenodd;stroke:#9c9c9c;stroke-width:1.25;stroke-linejoin:round;stroke-miterlimit:10"
               inkscape:connector-curvature="0" /><rect
               style="fill:#ff6600;stroke:none;stroke-width:0.537967;stroke-opacity:1;stop-color:#000000"
               id="rect11520-7"
               width="2.4832072"
               height="1.3198428"
               x="407.85159"
               y="452.94962"
               ry="0.048386078" /><rect
               style="fill:#333333;stroke:none;stroke-width:0.537967;stroke-opacity:1;stop-color:#000000"
               id="rect11520-9-6"
               width="2.4832072"
               height="1.3198428"
               x="411.09421"
               y="454.74548"
               ry="0.048386078" /><rect
               style="fill:#008000;stroke:none;stroke-width:0.537967;stroke-opacity:1;stop-color:#000000"
               id="rect11520-2-5"
               width="2.4832072"
               height="1.3198428"
               x="414.33679"
               y="452.94962"
               ry="0.048386078" /></g><g
             id="g11735-3-6"
             transform="matrix(1,0,0,-1,0.02982334,929.47615)"><path
               id="path224-1-9"
               d="m 408.42711,455.37047 h 7.8174 c 0.68847,0 1.25,0.5615 1.25,1.25 v 5 c 0,0.69325 -0.56153,1.25 -1.25,1.25 h -7.8174 c -0.68848,0 -1.25,-0.55675 -1.25,-1.25 v -5 c 0,-0.6885 0.56152,-1.25 1.25,-1.25"
               style="fill:#515151;fill-rule:evenodd;stroke:#9c9c9c;stroke-width:1.25;stroke-linejoin:round;stroke-miterlimit:10"
               inkscape:connector-curvature="0" /><rect
               style="fill:#008000;stroke:none;stroke-width:0.537967;stroke-opacity:1;stop-color:#000000"
               id="rect11520-94-3"
               width="2.4832072"
               height="1.3198428"
               x="407.85159"
               y="452.94962"
               ry="0.048386078" /><rect
               style="fill:#333333;stroke:none;stroke-width:0.537967;stroke-opacity:1;stop-color:#000000"
               id="rect11520-9-7-7"
               width="2.4832072"
               height="1.3198428"
               x="411.09421"
               y="454.74548"
               ry="0.048386078" /><rect
               style="fill:#ff6600;stroke:none;stroke-width:0.537967;stroke-opacity:1;stop-color:#000000"
               id="rect11520-2-8-4"
               width="2.4832072"
               height="1.3198428"
               x="414.33679"
               y="452.94962"
               ry="0.048386078" /></g></g><g
           id="g14954"
           transform="matrix(0.5,0,0,0.5,201.49685,211.06071)"><g
             id="g14942"
             transform="translate(0.02982334)"><path
               id="path14934"
               d="m 408.42711,455.37047 h 7.8174 c 0.68847,0 1.25,0.5615 1.25,1.25 v 5 c 0,0.69325 -0.56153,1.25 -1.25,1.25 h -7.8174 c -0.68848,0 -1.25,-0.55675 -1.25,-1.25 v -5 c 0,-0.6885 0.56152,-1.25 1.25,-1.25"
               style="fill:#515151;fill-rule:evenodd;stroke:#9c9c9c;stroke-width:1.25;stroke-linejoin:round;stroke-miterlimit:10"
               inkscape:connector-curvature="0" /><rect
               style="fill:#ff6600;stroke:none;stroke-width:0.537967;stroke-opacity:1;stop-color:#000000"
               id="rect14936"
               width="2.4832072"
               height="1.3198428"
               x="407.85159"
               y="452.94962"
               ry="0.048386078" /><rect
               style="fill:#333333;stroke:none;stroke-width:0.537967;stroke-opacity:1;stop-color:#000000"
               id="rect14938"
               width="2.4832072"
               height="1.3198428"
               x="411.09421"
               y="454.74548"
               ry="0.048386078" /><rect
               style="fill:#008000;stroke:none;stroke-width:0.537967;stroke-opacity:1;stop-color:#000000"
               id="rect14940"
               width="2.4832072"
               height="1.3198428"
               x="414.33679"
               y="452.94962"
               ry="0.048386078" /></g><g
             id="g14952"
             transform="matrix(1,0,0,-1,0.02982334,929.47615)"><path
               id="path14944"
               d="m 408.42711,455.37047 h 7.8174 c 0.68847,0 1.25,0.5615 1.25,1.25 v 5 c 0,0.69325 -0.56153,1.25 -1.25,1.25 h -7.8174 c -0.68848,0 -1.25,-0.55675 -1.25,-1.25 v -5 c 0,-0.6885 0.56152,-1.25 1.25,-1.25"
               style="fill:#515151;fill-rule:evenodd;stroke:#9c9c9c;stroke-width:1.25;stroke-linejoin:round;stroke-miterlimit:10"
               inkscape:connector-curvature="0" /><rect
               style="fill:#008000;stroke:none;stroke-width:0.537967;stroke-opacity:1;stop-color:#000000"
               id="rect14946"
               width="2.4832072"
               height="1.3198428"
               x="407.85159"
               y="452.94962"
               ry="0.048386078" /><rect
               style="fill:#333333;stroke:none;stroke-width:0.537967;stroke-opacity:1;stop-color:#000000"
               id="rect14948"
               width="2.4832072"
               height="1.3198428"
               x="411.09421"
               y="454.74548"
               ry="0.048386078" /><rect
               style="fill:#ff6600;stroke:none;stroke-width:0.537967;stroke-opacity:1;stop-color:#000000"
               id="rect14950"
               width="2.4832072"
               height="1.3198428"
               x="414.33679"
               y="452.94962"
               ry="0.048386078" /></g></g><g
           id="g14976"
           transform="matrix(0.5,0,0,0.5,209.8302,211.06071)"><g
             id="g14964"
             transform="translate(0.02982334)"><path
               id="path14956"
               d="m 408.42711,455.37047 h 7.8174 c 0.68847,0 1.25,0.5615 1.25,1.25 v 5 c 0,0.69325 -0.56153,1.25 -1.25,1.25 h -7.8174 c -0.68848,0 -1.25,-0.55675 -1.25,-1.25 v -5 c 0,-0.6885 0.56152,-1.25 1.25,-1.25"
               style="fill:#515151;fill-rule:evenodd;stroke:#9c9c9c;stroke-width:1.25;stroke-linejoin:round;stroke-miterlimit:10"
               inkscape:connector-curvature="0" /><rect
               style="fill:#ff6600;stroke:none;stroke-width:0.537967;stroke-opacity:1;stop-color:#000000"
               id="rect14958"
               width="2.4832072"
               height="1.3198428"
               x="407.85159"
               y="452.94962"
               ry="0.048386078" /><rect
               style="fill:#333333;stroke:none;stroke-width:0.537967;stroke-opacity:1;stop-color:#000000"
               id="rect14960"
               width="2.4832072"
               height="1.3198428"
               x="411.09421"
               y="454.74548"
               ry="0.048386078" /><rect
               style="fill:#008000;stroke:none;stroke-width:0.537967;stroke-opacity:1;stop-color:#000000"
               id="rect14962"
               width="2.4832072"
               height="1.3198428"
               x="414.33679"
               y="452.94962"
               ry="0.048386078" /></g><g
             id="g14974"
             transform="matrix(1,0,0,-1,0.02982334,929.47615)"><path
               id="path14966"
               d="m 408.42711,455.37047 h 7.8174 c 0.68847,0 1.25,0.5615 1.25,1.25 v 5 c 0,0.69325 -0.56153,1.25 -1.25,1.25 h -7.8174 c -0.68848,0 -1.25,-0.55675 -1.25,-1.25 v -5 c 0,-0.6885 0.56152,-1.25 1.25,-1.25"
               style="fill:#515151;fill-rule:evenodd;stroke:#9c9c9c;stroke-width:1.25;stroke-linejoin:round;stroke-miterlimit:10"
               inkscape:connector-curvature="0" /><rect
               style="fill:#008000;stroke:none;stroke-width:0.537967;stroke-opacity:1;stop-color:#000000"
               id="rect14968"
               width="2.4832072"
               height="1.3198428"
               x="407.85159"
               y="452.94962"
               ry="0.048386078" /><rect
               style="fill:#333333;stroke:none;stroke-width:0.537967;stroke-opacity:1;stop-color:#000000"
               id="rect14970"
               width="2.4832072"
               height="1.3198428"
               x="411.09421"
               y="454.74548"
               ry="0.048386078" /><rect
               style="fill:#ff6600;stroke:none;stroke-width:0.537967;stroke-opacity:1;stop-color:#000000"
               id="rect14972"
               width="2.4832072"
               height="1.3198428"
               x="414.33679"
               y="452.94962"
               ry="0.048386078" /></g></g></g><path
         id="path222"
         d="m 470.26659,413.41973 h 2.23251 v 20.04567 h -2.23251 z"
         style="fill:#9c9c9c;fill-rule:evenodd;stroke:#7d7d7d;stroke-width:1.18258;stroke-miterlimit:10"
         inkscape:connector-curvature="0" /><path
         id="path248"
         d="m 474.73161,413.41973 h 2.23252 v 20.04567 h -2.23252 z"
         style="fill:#9c9c9c;fill-rule:evenodd;stroke:#7d7d7d;stroke-width:1.18258;stroke-miterlimit:10"
         inkscape:connector-curvature="0" /><path
         id="path250"
         d="m 479.19664,413.41973 h 2.23251 v 20.04567 h -2.23251 z"
         style="fill:#9c9c9c;fill-rule:evenodd;stroke:#7d7d7d;stroke-width:1.18258;stroke-miterlimit:10"
         inkscape:connector-curvature="0" /><text
         xml:space="preserve"
         style="font-size:20.5128px;line-height:1.25;font-family:sans-serif;-inkscape-font-specification:sans-serif;fill:#808080;stroke-width:0.946068"
         x="481.1651"
         y="407.1239"
         id="text376"
         transform="scale(0.94391227,1.0594205)"><tspan
           sodipodi:role="line"
           id="tspan374"
           x="481.1651"
           y="407.1239"
           style="font-size:20.5128px;fill:#808080;stroke-width:0.946068">3</tspan></text><g
         id="g14860"
         transform="rotate(90,499.34569,367.00066)"><path
           id="path14701"
           d="m 554.46164,424.41623 c 0,-1.85323 -2.77657,-1.85323 -2.77657,0 0,1.84767 2.77657,1.84767 2.77657,0"
           style="fill:#00ff00;fill-rule:evenodd;stroke:#7d7d7d;stroke-width:0.416322;stroke-miterlimit:10"
           inkscape:connector-curvature="0" /><path
           id="path14703"
           d="m 554.46164,419.28048 c 0,-1.85323 -2.77657,-1.85323 -2.77657,0 0,1.84767 2.77657,1.84767 2.77657,0"
           style="fill:#00ff00;fill-rule:evenodd;stroke:#7d7d7d;stroke-width:0.416322;stroke-miterlimit:10"
           inkscape:connector-curvature="0" /><path
           id="path14705"
           d="m 554.46164,429.55198 c 0,-1.85323 -2.77657,-1.85323 -2.77657,0 0,1.84767 2.77657,1.84767 2.77657,0"
           style="fill:#ff0000;fill-rule:evenodd;stroke:#7d7d7d;stroke-width:0.416322;stroke-miterlimit:10"
           inkscape:connector-curvature="0" /><path
           id="path14707"
           d="m 554.46164,434.68773 c 0,-1.85323 -2.77657,-1.85323 -2.77657,0 0,1.84766 2.77657,1.84766 2.77657,0"
           style="fill:#00ff00;fill-rule:evenodd;stroke:#7d7d7d;stroke-width:0.416322;stroke-miterlimit:10"
           inkscape:connector-curvature="0" /></g><g
         id="g14984"
         transform="matrix(0,-0.71417695,1.4649292,0,-237.15696,739.96889)"><path
           id="path14978"
           d="m 450.50769,429.7985 h 2.23251 v 20.04567 h -2.23251 z"
           style="fill:#9c9c9c;fill-rule:evenodd;stroke:#7d7d7d;stroke-width:1.18258;stroke-miterlimit:10"
           inkscape:connector-curvature="0" /><path
           id="path14980"
           d="m 454.97271,429.7985 h 2.23252 v 20.04567 h -2.23252 z"
           style="fill:#9c9c9c;fill-rule:evenodd;stroke:#7d7d7d;stroke-width:1.18258;stroke-miterlimit:10"
           inkscape:connector-curvature="0" /></g><rect
         style="opacity:0.8;fill:#333333;fill-opacity:1;stroke:#ffffff;stroke-width:0.428571;stroke-linejoin:miter;stroke-dasharray:none;stop-color:#000000"
         id="rect17993"
         width="3.8961987"
         height="2.8627536"
         x="417.53024"
         y="428.87561"
         rx="0"
         ry="0" /><path
         style="fill:none;stroke:#666666;stroke-width:0.375083;stroke-linecap:butt;stroke-linejoin:miter;stroke-opacity:1"
         d="m 417.32146,427.93684 h 4.31378"
         id="path18124" /><rect
         style="opacity:0.8;fill:#333333;fill-opacity:1;stroke:#ffffff;stroke-width:0.428571;stroke-linejoin:miter;stroke-dasharray:none;stop-color:#000000"
         id="rect18142"
         width="3.8961987"
         height="2.8627536"
         x="424.1969"
         y="428.87561"
         rx="0"
         ry="0" /><path
         style="fill:#1a1a1a;stroke:#666666;stroke-width:0.375083;stroke-linecap:butt;stroke-linejoin:miter;stroke-opacity:1"
         d="m 423.98813,427.93685 h 4.31378"
         id="path18144" /></g></g><metadata
     id="metadata213"><rdf:RDF><cc:Work><dc:format>image/svg+xml</dc:format><dc:type
           rdf:resource="http://purl.org/dc/dcmitype/StillImage" /><dc:description /></cc:Work></rdf:RDF></metadata></svg>
